{
	"title": "ProcessCroppableImage",
	"summary": "only use FieldtypeCroppableImage to install / uninstall or configure Croppable Image Functionality!",
	"version": 82,
	"author": "",
	"icon": "crop",
	"requires": "ProcessWire>=2.5.11, PHP>=5.4.0, FieldtypeCroppableImage>=82",
    "singular": true,
	"permission": "page-edit"
}
